…
    ## `summarise()` has grouped output by 'Person'. You can override using the
    ## `.groups` argument.

    mm<-mm[order(mm$Person, decreasing = TRUE), ]   
    mm

    ## # A tibble: 1,483 × 2
    ## # Groups:   Person [1,359]
    ##    Person                    count
    ##    <chr>                     <int>
    ##  1 ff02::fb                   3298
    ##  2 ff02::1:3                 14411
    ##  3 fec0:0:0:ffff::3             44
    ##  4 fec0:0:0:ffff::2             47
    ##  5 fec0:0:0:ffff::1             47
    ##  6 fe80::f2de:f1ff:fe9b:ad6a    30
    ##  7 fe80::d840:5635:ef48:b032   276
    ##  8 fe80::d69a:20ff:fef9:b49c   141
    ##  9 fe80::d69a:20ff:fef9:b49c     2
    ## 10 fe80::c62c:3ff:fe37:efc     126
    ## # … with 1,473 more rows
…
