…
    list[2]

    ## [[1]]
    ## # A tibble: 1,458 × 8
    ##    faa   name                             lat    lon   alt    tz dst   tzone    
    ##    <chr> <chr>                          <dbl>  <dbl> <dbl> <dbl> <chr> <chr>    
    ##  1 04G   Lansdowne Airport               41.1  -80.6  1044    -5 A     America/…
    ##  2 06A   Moton Field Municipal Airport   32.5  -85.7   264    -6 A     America/…
    ##  3 06C   Schaumburg Regional             42.0  -88.1   801    -6 A     America/…
    ##  4 06N   Randall Airport                 41.4  -74.4   523    -5 A     America/…
    ##  5 09J   Jekyll Island Airport           31.1  -81.4    11    -5 A     America/…
    ##  6 0A9   Elizabethton Municipal Airport  36.4  -82.2  1593    -5 A     America/…
    ##  7 0G6   Williams County Airport         41.5  -84.5   730    -5 A     America/…
    ##  8 0G7   Finger Lakes Regional Airport   42.9  -76.8   492    -5 A     America/…
    ##  9 0P2   Shoestring Aviation Airfield    39.8  -76.6  1000    -5 U     America/…
    ## 10 0S9   Jefferson County Intl           48.1 -123.    108    -8 A     America/…
    ## # … with 1,448 more rows

    list[3]

    ## [[1]]
    ## # A tibble: 336,776 × 19
    ##     year month   day dep_time sched_de…¹ dep_d…² arr_t…³ sched…⁴ arr_d…⁵ carrier
    ##    <int> <int> <int>    <int>      <int>   <dbl>   <int>   <int>   <dbl> <chr>  
    ##  1  2013     1     1      517        515       2     830     819      11 UA     
    ##  2  2013     1     1      533        529       4     850     830      20 UA     
    ##  3  2013     1     1      542        540       2     923     850      33 AA     
    ##  4  2013     1     1      544        545      -1    1004    1022     -18 B6     
    ##  5  2013     1     1      554        600      -6     812     837     -25 DL     
    ##  6  2013     1     1      554        558      -4     740     728      12 UA     
    ##  7  2013     1     1      555        600      -5     913     854      19 B6     
    ##  8  2013     1     1      557        600      -3     709     723     -14 EV     
    ##  9  2013     1     1      557        600      -3     838     846      -8 B6     
    ## 10  2013     1     1      558        600      -2     753     745       8 AA     
    ## # … with 336,766 more rows, 9 more variables: flight <int>, tailnum <chr>,
    ## #   origin <chr>, dest <chr>, air_time <dbl>, distance <dbl>, hour <dbl>,
    ## #   minute <dbl>, time_hour <dttm>, and abbreviated variable names
    ## #   ¹​sched_dep_time, ²​dep_delay, ³​arr_time, ⁴​sched_arr_time, ⁵​arr_delay

    list[4]

    ## [[1]]
    ## # A tibble: 3,322 × 9
    ##    tailnum  year type                   manuf…¹ model engines seats speed engine
    ##    <chr>   <int> <chr>                  <chr>   <chr>   <int> <int> <int> <chr> 
    ##  1 N10156   2004 Fixed wing multi engi… EMBRAER EMB-…       2    55    NA Turbo…
    ##  2 N102UW   1998 Fixed wing multi engi… AIRBUS… A320…       2   182    NA Turbo…
    ##  3 N103US   1999 Fixed wing multi engi… AIRBUS… A320…       2   182    NA Turbo…
    ##  4 N104UW   1999 Fixed wing multi engi… AIRBUS… A320…       2   182    NA Turbo…
    ##  5 N10575   2002 Fixed wing multi engi… EMBRAER EMB-…       2    55    NA Turbo…
    ##  6 N105UW   1999 Fixed wing multi engi… AIRBUS… A320…       2   182    NA Turbo…
    ##  7 N107US   1999 Fixed wing multi engi… AIRBUS… A320…       2   182    NA Turbo…
    ##  8 N108UW   1999 Fixed wing multi engi… AIRBUS… A320…       2   182    NA Turbo…
    ##  9 N109UW   1999 Fixed wing multi engi… AIRBUS… A320…       2   182    NA Turbo…
    ## 10 N110UW   1999 Fixed wing multi engi… AIRBUS… A320…       2   182    NA Turbo…
    ## # … with 3,312 more rows, and abbreviated variable name ¹​manufacturer

    list[5]

    ## [[1]]
    ## # A tibble: 26,115 × 15
    ##    origin  year month   day  hour  temp  dewp humid wind_dir wind_speed wind_g…¹
    ##    <chr>  <int> <int> <int> <int> <dbl> <dbl> <dbl>    <dbl>      <dbl>    <dbl>
    ##  1 EWR     2013     1     1     1  39.0  26.1  59.4      270      10.4        NA
    ##  2 EWR     2013     1     1     2  39.0  27.0  61.6      250       8.06       NA
    ##  3 EWR     2013     1     1     3  39.0  28.0  64.4      240      11.5        NA
    ##  4 EWR     2013     1     1     4  39.9  28.0  62.2      250      12.7        NA
    ##  5 EWR     2013     1     1     5  39.0  28.0  64.4      260      12.7        NA
    ##  6 EWR     2013     1     1     6  37.9  28.0  67.2      240      11.5        NA
    ##  7 EWR     2013     1     1     7  39.0  28.0  64.4      240      15.0        NA
    ##  8 EWR     2013     1     1     8  39.9  28.0  62.2      250      10.4        NA
    ##  9 EWR     2013     1     1     9  39.9  28.0  62.2      260      15.0        NA
    ## 10 EWR     2013     1     1    10  41    28.0  59.6      260      13.8        NA
    ## # … with 26,105 more rows, 4 more variables: precip <dbl>, pressure <dbl>,
    ## #   visib <dbl>, time_hour <dttm>, and abbreviated variable name ¹​wind_gust
…
