…
    ## 
    ## Attaching package: 'dplyr'

    ## The following objects are masked from 'package:stats':
    ## 
    ##     filter, lag

    ## The following objects are masked from 'package:base':
    ## 
    ##     intersect, setdiff, setequal, union

    starwars

    ## # A tibble: 87 × 14
    ##    name        height  mass hair_…¹ skin_…² eye_c…³ birth…⁴ sex   gender homew…⁵
    ##    <chr>        <int> <dbl> <chr>   <chr>   <chr>     <dbl> <chr> <chr>  <chr>  
    ##  1 Luke Skywa…    172    77 blond   fair    blue       19   male  mascu… Tatooi…
    ##  2 C-3PO          167    75 <NA>    gold    yellow    112   none  mascu… Tatooi…
    ##  3 R2-D2           96    32 <NA>    white,… red        33   none  mascu… Naboo  
    ##  4 Darth Vader    202   136 none    white   yellow     41.9 male  mascu… Tatooi…
    ##  5 Leia Organa    150    49 brown   light   brown      19   fema… femin… Aldera…
    ##  6 Owen Lars      178   120 brown,… light   blue       52   male  mascu… Tatooi…
    ##  7 Beru White…    165    75 brown   light   blue       47   fema… femin… Tatooi…
    ##  8 R5-D4           97    32 <NA>    white,… red        NA   none  mascu… Tatooi…
    ##  9 Biggs Dark…    183    84 black   light   brown      24   male  mascu… Tatooi…
    ## 10 Obi-Wan Ke…    182    77 auburn… fair    blue-g…    57   male  mascu… Stewjon
    ## # … with 77 more rows, 4 more variables: species <chr>, films <list>,
    ## #   vehicles <list>, starships <list>, and abbreviated variable names
    ## #   ¹​hair_color, ²​skin_color, ³​eye_color, ⁴​birth_year, ⁵​homeworld
…
## **5. Найти самого высокого персонажа.**

    starwars[which.max(starwars$height),1]

    ## # A tibble: 1 × 1
    ##   name       
    ##   <chr>      
    ## 1 Yarael Poof

## **6. Найти всех персонажей ниже 170**

    starwars[which(starwars$height<170),1]

    ## # A tibble: 23 × 1
    ##    name                 
    ##    <chr>                
    ##  1 C-3PO                
    ##  2 R2-D2                
    ##  3 Leia Organa          
    ##  4 Beru Whitesun lars   
    ##  5 R5-D4                
    ##  6 Yoda                 
    ##  7 Mon Mothma           
    ##  8 Wicket Systri Warrick
    ##  9 Nien Nunb            
    ## 10 Watto                
    ## # … with 13 more rows

## **7. Подсчитать ИМТ (индекс массы тела) для всех персонажей. ИМТ подсчитать по формуле 𝐼 = 𝑚/h\^2**

ℎ2 , где 𝑚 -- масса (weight), а ℎ -- рост (height).

    starwars2<-starwars[,c("name","height","mass")]
    vec<-0
    starwars2$index <- vec
    for(i in 1:nrow(starwars2)) {       # for-loop over columns
      starwars2[i, "index"] = starwars2[ i,"mass"]*10000/(starwars2[i,"height"]*starwars2[i,"height"])
    }
    starwars2

    ## # A tibble: 87 × 4
    ##    name               height  mass index
    ##    <chr>               <int> <dbl> <dbl>
    ##  1 Luke Skywalker        172    77  26.0
    ##  2 C-3PO                 167    75  26.9
    ##  3 R2-D2                  96    32  34.7
    ##  4 Darth Vader           202   136  33.3
    ##  5 Leia Organa           150    49  21.8
    ##  6 Owen Lars             178   120  37.9
    ##  7 Beru Whitesun lars    165    75  27.5
    ##  8 R5-D4                  97    32  34.0
    ##  9 Biggs Darklighter     183    84  25.1
    ## 10 Obi-Wan Kenobi        182    77  23.2
    ## # … with 77 more rows
…
